//taken from fairship repository

Scintillator       -2  12.011 1.00794 6.0 1.0 1.032 8. 8.
                   1  0  20.  .001
                   0

air                3  14.01  16.  39.95  7.  8.  18.  1.205e-3  .755  .231  .014
                   0  1  30.  .001
                   0

GraphiteR4550      1  12.011  6.0  1.83
                   0  1  20.  .001
                   0

silicon            1  28.0855 14.0 2.33
                   1  1  20.  .001
                   0

PbWO4              -3  207.19 183.85 16.00  82 74 8  8.28  1 1 4
                   1  1  20.  .001
                   0     